{
  "answer": "The Spanish verbs **hablar**, **conversar**, **platicar**, and **charlar** are all synonyms related to \"speaking\" or \"talking,\" but they differ in **formality**, **regional usage**, and **nuance**, especially in Latin America.\n\n### Core Meanings and Formality Levels\n\n| Verb        | Core Meaning         | Formality Level      | Regional Usage                | Typical Contexts                |\n|-------------|---------------------|----------------------|-------------------------------|---------------------------------|\n| **hablar**     | to speak, to talk     | Neutral (most general) | Universal (Spain & Latin America) | Any situation, formal or informal |\n| **conversar**  | to converse, to talk  | Slightly more formal  | Common in Latin America, formal in Spain | Deliberate, often longer or more serious conversations |\n| **platicar**   | to chat, to converse  | Informal              | Mexico, Central America, some South America | Casual conversations, friendly chats |\n| **charlar**    | to chat, to chatter   | Informal              | Spain, some Latin America         | Light, informal, social chatting |\n\n---\n\n### Detailed Usage and Regional Notes\n\n- **Hablar** is the most **versatile** and **neutral** verb. It can be used in both formal and informal contexts, with friends, family, or in professional settings. If in doubt, **hablar** is always safe to use[2][4].\n- **Conversar** implies a more **deliberate exchange** or dialogue, often with some seriousness or depth. In Spain, it is considered more formal and reserved for serious or thoughtful conversations. In Latin America, it is used more broadly and can be interchangeable with **charlar** or **hablar** in casual contexts[4].\n- **Platicar** is **regionally marked**: it is the standard word for \"to chat\" in **Mexico** and parts of Central America, and is also found in some South American countries. It is **informal** and used for friendly, relaxed conversations[1][5].\n- **Charlar** is generally **informal** and means \"to chat\" or \"to have a light conversation.\" It is common in Spain and some Latin American countries. It often implies a casual, social, or even somewhat superficial conversation[1][4].\n\n---\n\n### Example Sentences\n\n- **Hablar**:  \n  - *¿Podemos hablar?* — Can we talk? (neutral, any context)[2].\n  - *Hablé con mi jefe sobre el proyecto.* — I spoke with my boss about the project (can be formal or informal)[2].\n\n- **Conversar**:  \n  - *Me gusta conversar con mis amigos en la cafetería.* — I like to converse with my friends at the café (slightly more formal, but common in Latin America)[4].\n  - *Conversaron sobre temas importantes.* — They conversed about important topics (formal in Spain).\n\n- **Platicar**:  \n  - *¿Quieres platicar un rato?* — Do you want to chat for a while? (informal, Mexico)[5].\n  - *Platicamos sobre nuestras vacaciones.* — We chatted about our vacations (informal, Mexico)[5].\n\n- **Charlar**:  \n  - *Nos gusta charlar después de clase.* — We like to chat after class (informal)[4].\n  - *Charlaron durante horas.* — They chatted for hours (informal)[1].\n\n---\n\n### Summary Table: Formality and Regional Preference\n\n| Verb        | Formality (Spain) | Formality (Latin America) | Regional Preference         |\n|-------------|-------------------|---------------------------|----------------------------|\n| **hablar**     | Neutral            | Neutral                    | Universal                  |\n| **conversar**  | Formal             | Neutral/slightly formal    | Common in Latin America    |\n| **platicar**   | Rare/informal      | Informal                   | Mexico, Central America    |\n| **charlar**    | Informal           | Informal                   | Spain, some Latin America  |\n\n---\n\n### Additional Notes\n\n- All four verbs are **regular -ar verbs** and conjugate similarly.\n- **Platicar** and **charlar** are often used interchangeably in informal contexts, but **platicar** is more regionally restricted to Mexico and Central America[1].\n- **Conversar** can sound stilted or overly formal in Spain for everyday conversation, but is more neutral in Latin America.\n- In digital contexts, **chatear** (from English \"to chat\") is used for online chatting, especially in Spain[1][3].\n\n---\n\n**In summary:**  \n- Use **hablar** for any context, formal or informal, anywhere.\n- Use **conversar** for more formal or thoughtful conversations, especially in Spain, but also common in Latin America.\n- Use **platicar** for informal chatting in Mexico and Central America.\n- Use **charlar** for informal, light conversation, especially in Spain and some Latin American countries.  \nRegional preference and context determine the best synonym to use[1][4][5].",
  "citations": [
    {
      "index": 2,
      "title": "SpanishDictionary.com",
      "url": "https://www.spanishdict.com/compare/hablar/conversar",
      "snippet": "QUICK ANSWER\n\n\"Hablar\" is an intransitive verb which is often translated as \"to speak\", and \"conversar\" is an intransitive verb which is often translated as \"to talk\". Learn more about the difference between \"hablar\" and \"conversar\" below.\n\nCopyright © 2025 Curiosity Media Inc.\n\nhablar(\n\nah\n\n\n\nblahr)\n\nintransitive verb\n\nAn intransitive verb is one that does not require a direct object (e.g., The man sneezed.).\n\na. to speak\n\nHabló un buen rato de las reformas que había propuesto el gobierno.He spoke at length about the reforms the government had proposed.\n\na. to call\n\nBuenas tardes, ¿se encuentra la Sra. Martínez? - ¿Quién habla?Good afternoon, may I speak with Mrs. Martinez? - Who is calling?\n\ntransitive verb\n\nA transitive verb is a verb that requires a direct object (e.g., I bought a book.).\n\na. to discuss\n\nEso tienes que hablarlo directamente con el director.You need to discuss that directly with the principal.\n\nb. to say\n\n¿Verdaderamente no tienes nada de qué hablarme?You really don't have anything to say to me?... 8. (to call)\n\n(Argentina)\n\nRegionalism used in Argentina\n\n(El Salvador)\n\nRegionalism used in El Salvador\n\n(Mexico)\n\nRegionalism used in Mexico\n\na. to phone\n\nAhora que tienes su número, ¿le vas a hablar?Now that you have her number, are you going to phone her?\n\nhablarse\n\nreciprocal verb\n\nA reciprocal verb is a verb that indicates that two or more subjects perform an action on each other (e.g., Ellos se abrazan.).\n\nb. to talk to each other\n\nDeberían hablarse con más frecuencia para que no surja este tipo de problema.They should talk to each other more often to avoid this type of issue coming up.\n\ne. to be on speaking terms\n\nLos primos no se hablan después de la pelea sobre la herencia.The cousins aren't on speaking terms after the fight over the inheritance.\n\nCopyright © 2025 Curiosity Media Inc.\n\nconversar(\n\nkohn\n\n\n\nbehr\n\n\n\nsahr)\n\nintransitive verb\n\nAn intransitive verb is one that does not require a direct object (e.g., The man sneezed.).\n\na. to talk\n\nJorge y su esposa conversaron acerca de sus planes para el retiro.Jorge and his wife talked about their retirement plans.... b. to converse\n\nLa gente conversaba animadamente mientras disfrutaba de su comida.People were conversing animatedly and enjoying their meals.\n\nc. to chat\n\nLas abuelas conversaron por horas acerca de sus nietos.The grandmothers chatted for hours about their grandchildren."
    },
    {
      "index": 4,
      "title": "Conjugate verb hablar Spanish",
      "url": "https://conjugator.reverso.net/conjugation-spanish-verb-hablar.html",
      "snippet": "Model:\n\namar\n\nAuxiliary:\n\nhaber\n\nOther forms:\n\nhablarse/no hablar\n\nRegular verbs ending in -ar\n\nPresente\n\nFuturo\n\nPretérito imperfecto\n\nPretérito perfecto compuesto\n\nPretérito pluscuamperfecto\n\nPretérito anterior\n\nFuturo perfecto\n\nCondicional perfecto\n\nCondicional\n\nPretérito perfecto simple\n\nPretérito imperfecto (2)\n\nPretérito pluscuamperfecto (2)\n\nPretérito perfecto"
    },
    {
      "index": 4,
      "title": "Conjugate verb hablar Spanish",
      "url": "https://conjugator.reverso.net/conjugation-spanish-verb-hablar.html",
      "snippet": "Model:\n\namar\n\nAuxiliary:\n\nhaber\n\nOther forms:\n\nhablarse/no hablar\n\nRegular verbs ending in -ar\n\nPresente\n\nFuturo\n\nPretérito imperfecto\n\nPretérito perfecto compuesto\n\nPretérito pluscuamperfecto\n\nPretérito anterior\n\nFuturo perfecto\n\nCondicional perfecto\n\nCondicional\n\nPretérito perfecto simple\n\nPretérito imperfecto (2)\n\nPretérito pluscuamperfecto (2)\n\nPretérito perfecto"
    },
    {
      "index": 1,
      "title": "SpanishDictionary.com",
      "url": "https://www.spanishdict.com/answers/215345/what-is-the-difference-between-hablar-platicar-and-charlar",
      "snippet": "# What is the difference between Hablar, Platicar, and Charlar?\n\nCould someone explain to me the usages of the words Hablar, Platicar, and Charlar? I am of the impression that HABLAR would be the most formal, then PLATICAR, followed by CHARLAR, which is basically chattering... I'm I way off?\n\n### 4 Answers\n\nI think the difference is mainly regional, ie. some regions prefer to use one of those over the other.\n\nThey are pretty much synonymous though with platicar and charlar both meaning to chat and hablar literally meaning to speak but also able to be used as 'to chat'. It seems that this is the case with hablar especially in Spain whereas platicar seems more common in Latin America but hopefully you'll get some more input from native speakers\n\nHablar- to speak.\n\nPlacticar- to converse, similar to \"conversar\"\n\nCharlar --to chatter, also converse.\n\nI would like to add a fourth one \"Cotorrear\" This is the kind of chattering that girls like to do --very fast somewhat high- pitched, without stopping. It comes from \"cotorra\" a bird--the magpie (a parrot in some areas) that is known for doing all the above.\n\nAnd now Real Academia en España has added CHATEAR to the chat words.\n\nThankya much! Do you ever look at the Real Academia de España? I couldn't seem to understand a difference between the first two.\n\n"
    },
    {
      "index": 5,
      "title": "Let's Talk About It: Your Full Guide to the “Hablar” Conjugation in ...",
      "url": "https://www.clozemaster.com/blog/hablar-conjugation/",
      "snippet": "Let’s talk\n\n*talking*: are you the kind of person that feels energized by a good conversation? Or do you need lots of quiet time after going out with friends? What about the kinds of conversations you like to have: do you like small talk? Gossip? Discussing the economy? The point is, there are as many ways of talking as there are people and moods, and it is important to be able to communicate well, no matter the context.\n\nIn today’s lesson, we’re going to learn about the Spanish verb\n\n**hablar**, meaning *to talk, or to speak*. Over the course of this post, we’ll go over some key information on what kind of verb **hablar **is. We’ll also look at the different meanings of **hablar**, and lots of **hablar** conjugation for you to sink your teeth into. Once you’ve finished reading, there is a tailor-made Cloze collection at the bottom of this post for you to practice your new skills with.\n\nSo, without further ado, let’s talk!... ## What Kind of Verb is\n\n*Hablar*?\n\n*Drumroll, please*…\n\nIf you’ve been following these posts for a while, you’re probably so used to irregular verbs that you no longer get phased by them at all. If this is the case, you’re in for a surprise. The verb\n\n**hablar **is a **regular **verb, meaning you’re about to have a much easier time. With regular verbs, conjugation is simpler and you can more intuitively fill in the blanks. Let me explain:\n\nIn Spanish, verbs always end either in\n\n**ar **(like **sanar, ** *to heal*) *, er *(like *comer, * *to eat*), or *ir *(like **compartir**, *to share*). These verbs all have **stem **sections, which are the parts that come before **ar, er, **or **ir**. In **hablar**’s case, the stem is “ **habl**-”. What makes hablar a **regular **verb is that this stem never changes, no matter what tense or subject the verb is being conjugated with. This means that you can be 100% confident that in * hablar* conjugation, the verb will always start with “ **habl**-”, which cuts a lot of the guesswork out of the equation for you.\n\nIf you’re curious about other regular verbs, feel free to check out some other posts on this blog, like the one for\n\n**comer **( *to eat)*, or **leer **( *to read*).... ## The Different Meanings of\n\n*Hablar*\n\nNow that we’ve established that\n\n**hablar **is a regular verb, you can rest assured that you’re in for a pretty easy ride when it comes to this lesson. The only complication you’ll really be facing is how to parse out the different meanings of **hablar**. Lucky for you, if you already speak English, this is an absolute cakewalk. The verb **hablar** is a single verb that means both *to talk *and *to speak*.\n\nWhile in English you’d have to navigate which one is correct based on context, Spanish is more chilled-out in this regard, so you’d always use\n\n**hablar **no matter what. For example, if you wanted to ask *“Do you speak Italian?*”, you would say **“¿Hablas italiano?”. **Likewise, if you wanted to say *“Let’s go talk to him”*, you would say **“Vámonos a hablar con él.” **As you can see, there is no distinction between *to talk*, and *to speak *in Spanish, so you really have nothing to worry about when learning this verb!\n\n*Hablar* Verbals\n\nBecause\n\n**hablar **is a relatively easy verb to learn, learning its **verbal **forms only requires a solid understanding of what **verbals **are, so let’s start with that first. Despite their confusing name, **verbals **occur when verbs **don’t act like verbs **in a given sentence. Instead, they act as nouns, adjectives, or adverbs. This is usually because the sentence has a different active verb, so the inactive one is used just to make reference to an action, but not the one being undertaken within that sentence. Looking at some concrete examples will make this much clearer. Let’s take a look at three different verbal forms for **hablar**.... ### Participio (\n\n*participle*)\n\nOnly one more verbal to go! The\n\n*participle* of **hablar **is **“hablado”**, and this form is typically used when the active verb is **haber**, meaning *to have*. It is also used to organize compound verbs. As you will see in the compound verbs conjugation section later, the **participle **form reappears very frequently in Spanish conjugation. Here’s an example: **“¿Has hablado con tu abuela? Te está esperando.”**-> *“Have you spoken to your grandmother? She is waiting for you.”*\n\nIn this case, the active verb is actually\n\n**haber**, and the conjugation “ **has hablado**” is a compound form of **hablar**, which is why the *participle *is used.\n\nNow that we’ve covered verbals, the rest should be a breeze. Let’s do some proper\n\n**hablar **conjugation!... ## Beginner\n\n*Hablar* Conjugation\n\nTo begin these conjugation tables, let’s look at some of the most basic tenses for the verb\n\n**hablar**. These are the *present * **(presente)**, the *past perfect * **(el perfecto)**, the *past imperfect * **(el imperfecto)**, and the *future * **(futuro)**. With these four tenses in the bag, you’ll be well on your way to mastering the verb **hablar **and talking everyone’s ear off!\n\n||“|“|“|( “|\n|--|--|--|--|--|\n|Yo (I)|Hablo|Hablé|Hablaba|Hablaré|\n|Tú (You) Vos (Latin America)|Hablas Hablás|Hablaste|Hablabas|Hablarás|\n|El/Ella (He/She/It) Usted (You, formal)|Habla|Habló|Hablaba|Hablará|\n|Nosotros (We)|Hablamos|Hablamos|Hablábamos|Hablaremos|\n|Vosotros (You, plural) Ustedes (Latin America)|Habláis Hablan|Hablasteis Hablaron|Hablabais Hablaban|Hablaréis Hablarán|\n|Ellos/Ellas (They/Them)|Hablan|Hablaron|Hablaban|Hablarán|... ### Example Sentences for Intermediate\n\n*Hablar *Conjugation\n\n- Compound Perfect Preterite:\n\n**“He hablado con Sandra y hemos hecho las paces.” -> “** *I talked to Sandra and we made up.”*\n\n- Pluperfect: “\n\n**Cuando entraron a ofrecerle un ascenso, se dieron cuenta que Ricardo había hablado con su jefe porque quería renunciar.” ->** *“When they came in to offer him a raise, they realized that Ricardo had just spoken to his boss because he wanted to quit.”*\n\n- Future Perfect: “\n\n**Estoy segura que ya habrán hablado con el médico cuando lleguemos.” ->** *“I’m sure that they’ll have already spoken to the doctor when we get there.”*... ## Conditional\n\n*Hablar* Conjugation\n\nCongratulations! You’re doing fantastically well. If you’re looking for one more tense to really add to your Spanish vocabulary, the conditional is where it’s at. With the conditional, you can express what would happen\n\n*if *certain conditions are met. For example, you might want to tell a Spanish friend that you would speak Portuguese *if *you had the time to learn it. For that, you’d use a conditional form of the verb **hablar**. Let’s look at the simple *conditional * **(condicional**), and the *perfect conditional * **(condicional perfecto). **\n\n||( “|“|\n|--|--|--|\n|Yo (I)|Hablaría|Habría hablado|\n|Tu (You) Vos (Latin America)|Hablarías Hablarías|Habrías hablado|\n|El/Ella (He/She/It) Usted (You, formal)|Hablaría|Habría hablado|\n|Nosotros (We)|Hablaríamos|Habríamos hablado|\n|Vosotros (You, plural) Ustedes (Latin America)|Hablaríais Hablarían|Habríais hablado Habrían hablado|\n|Ellos/Ellas (They/Them)|Hablarían|Habrían hablado|\n### Example Sentences for Conditional\n\n*Hablar* Conjugation\n\n- Conditional:\n\n**“¿Si te pidiera perdón, hablarías con ella?**-> *“If she apologized, would you speak to her?”*\n\n- Perfect Conditional:\n\n**“Habrían hablado antes si estuvieran en la misma clase” ->**“ *They would have talked before if they had been in the same class.”*"
    }
  ],
  "planLog": [
    "🎯 GOAP Planning & Execution Log",
    "================================",
    "🧠 Strange Loop Reasoning:",
    "  • Query complexity: medium (1.40)",
    "  • Using advanced heuristic analysis",
    "  • Confidence: 85.0%",
    "",
    "📋 Plan Execution Summary:",
    "  • Steps executed: 4",
    "  • Success: Yes",
    "  • Replanned: No"
  ],
  "usage": {
    "tokens": 12044,
    "cost": 0.060219999999999996
  },
  "reasoning": {
    "insights": [
      "Query complexity: medium (1.40)",
      "Using advanced heuristic analysis"
    ],
    "suggestedActions": [
      "compose_queries",
      "search_information",
      "synthesize_results"
    ],
    "confidence": 0.85
  },
  "metadata": {
    "planId": "plan_1",
    "executionTime": 48156,
    "replanned": false
  },
  "paginationInfo": {
    "page": 1,
    "pageSize": 5,
    "totalPages": 4,
    "totalItems": 20,
    "hasNext": true,
    "hasPrevious": false
  }
}